{"data":[{"type":"torrent","id":"39808","attributes":{"name":"Gwendoline 1984 2in1 1080p Blu-ray AVC DTS-HD MA 5.1","release_year":null,"category":"Movie","type":"Full Disc","resolution":"1080p","seeders":1,"leechers":1,"times_completed":0,"tmdb_id":"19400","imdb_id":"0","tvdb_id":null,"mal_id":"0","igdb_id":"0","created_at":"Sat, Dec 28, 2019 9:23 PM","download_link":"https:\/\/blutopia.xyz\/torrent\/download\/39808.8d5b7108db36e46442e71580ab0c2f18"}},{"type":"torrent","id":"39807","attributes":{"name":"Adventures of Captain Marvel 1941 1080p Kino Lorber Blu-ray AVC DTS-HD MA 2.0","release_year":null,"category":"Movie","type":"Full Disc","resolution":"1080p","seeders":3,"leechers":0,"times_completed":2,"tmdb_id":"61020","imdb_id":"0033317","tvdb_id":null,"mal_id":"0","igdb_id":"0","created_at":"Sat, Dec 28, 2019 8:45 PM","download_link":"https:\/\/blutopia.xyz\/torrent\/download\/39807.8d5b7108db36e46442e71580ab0c2f18"}},{"type":"torrent","id":"39806","attributes":{"name":"Doctor Zhivago 1965 1080p BluRay DTS-HD MA 5.1 x264-beAst","release_year":null,"category":"Movie","type":"Encode","resolution":"1080p","seeders":3,"leechers":0,"times_completed":2,"tmdb_id":"907","imdb_id":"0","tvdb_id":null,"mal_id":"0","igdb_id":"0","created_at":"Sat, Dec 28, 2019 8:07 PM","download_link":"https:\/\/blutopia.xyz\/torrent\/download\/39806.8d5b7108db36e46442e71580ab0c2f18"}},{"type":"torrent","id":"39805","attributes":{"name":"Beware The Batman S01 1080p BluRay REMUX AVC DTS-HD MA 2.0-EPSiLON","release_year":null,"category":"TV","type":"Remux","resolution":"1080p","seeders":3,"leechers":0,"times_completed":2,"tmdb_id":"41676","imdb_id":"2329076","tvdb_id":"0","mal_id":"0","igdb_id":"0","created_at":"Sat, Dec 28, 2019 7:55 PM","download_link":"https:\/\/blutopia.xyz\/torrent\/download\/39805.8d5b7108db36e46442e71580ab0c2f18"}},{"type":"torrent","id":"39804","attributes":{"name":"The Bridge 1959 Criterion Collection 1080p BluRay REMUX AVC FLAC 1.0-OlStiLe","release_year":null,"category":"Movie","type":"Remux","resolution":"1080p","seeders":3,"leechers":0,"times_completed":2,"tmdb_id":"1566","imdb_id":"0","tvdb_id":"0","mal_id":"0","igdb_id":"0","created_at":"Sat, Dec 28, 2019 6:57 PM","download_link":"https:\/\/blutopia.xyz\/torrent\/download\/39804.8d5b7108db36e46442e71580ab0c2f18"}},{"type":"torrent","id":"39803","attributes":{"name":"Sword Art Online 2019 S04 WEB-DL 1080p AVC AAC 2 0 English Subbed-HorribleSubs","release_year":null,"category":"TV","type":"WEB-DL","resolution":"1080p","seeders":4,"leechers":0,"times_completed":4,"tmdb_id":"45782","imdb_id":"2250192","tvdb_id":"0","mal_id":"0","igdb_id":"0","created_at":"Sat, Dec 28, 2019 6:35 PM","download_link":"https:\/\/blutopia.xyz\/torrent\/download\/39803.8d5b7108db36e46442e71580ab0c2f18"}},{"type":"torrent","id":"39802","attributes":{"name":"Underground 1995 1080p BluRay DTS 5.1 x264-TDD","release_year":null,"category":"Movie","type":"Encode","resolution":"1080p","seeders":3,"leechers":0,"times_completed":2,"tmdb_id":"11902","imdb_id":"0114787","tvdb_id":null,"mal_id":"0","igdb_id":"0","created_at":"Sat, Dec 28, 2019 6:30 PM","download_link":"https:\/\/blutopia.xyz\/torrent\/download\/39802.8d5b7108db36e46442e71580ab0c2f18"}},{"type":"torrent","id":"39801","attributes":{"name":"Der Fangschu\u00df AKA Coup de gr\u00e2ce 1976 Criterion Collection DVD9 NTSC MPEG2 AC3","release_year":null,"category":"Movie","type":"Full Disc","resolution":"480p","seeders":2,"leechers":0,"times_completed":1,"tmdb_id":"42226","imdb_id":"0074515","tvdb_id":"0","mal_id":"0","igdb_id":"0","created_at":"Sat, Dec 28, 2019 6:19 PM","download_link":"https:\/\/blutopia.xyz\/torrent\/download\/39801.8d5b7108db36e46442e71580ab0c2f18"}},{"type":"torrent","id":"39800","attributes":{"name":"The Shop on Main Street 1965 1080p BluRay REMUX AVC FLAC 2.0-DOLAN","release_year":null,"category":"Movie","type":"Remux","resolution":"1080p","seeders":1,"leechers":2,"times_completed":0,"tmdb_id":"25905","imdb_id":"0059527","tvdb_id":null,"mal_id":"0","igdb_id":"0","created_at":"Sat, Dec 28, 2019 6:15 PM","download_link":"https:\/\/blutopia.xyz\/torrent\/download\/39800.8d5b7108db36e46442e71580ab0c2f18"}},{"type":"torrent","id":"39799","attributes":{"name":"Window Wonderland 2013 1080p AMZN WEB-DL DDP5 1 H 264-ABM","release_year":null,"category":"Movie","type":"WEB-DL","resolution":"1080p","seeders":3,"leechers":0,"times_completed":2,"tmdb_id":"239180","imdb_id":"0","tvdb_id":null,"mal_id":"0","igdb_id":"0","created_at":"Sat, Dec 28, 2019 5:53 PM","download_link":"https:\/\/blutopia.xyz\/torrent\/download\/39799.8d5b7108db36e46442e71580ab0c2f18"}},{"type":"torrent","id":"39798","attributes":{"name":"Zombieland Double Tap 2019 1080p BluRay REMUX AVC DTS-HD MA 5 1-EPSiLON","release_year":null,"category":"Movie","type":"Remux","resolution":"1080p","seeders":5,"leechers":0,"times_completed":3,"tmdb_id":"338967","imdb_id":"1560220","tvdb_id":null,"mal_id":"0","igdb_id":"0","created_at":"Sat, Dec 28, 2019 5:25 PM","download_link":"https:\/\/blutopia.xyz\/torrent\/download\/39798.8d5b7108db36e46442e71580ab0c2f18"}},{"type":"torrent","id":"39797","attributes":{"name":"Alexander Nevsky 1938 1080p BluRay AVC DTS-HD MA 5.1","release_year":null,"category":"Movie","type":"Full Disc","resolution":"1080p","seeders":3,"leechers":0,"times_completed":2,"tmdb_id":"10235","imdb_id":"0029850","tvdb_id":"0","mal_id":"0","igdb_id":"0","created_at":"Sat, Dec 28, 2019 4:24 PM","download_link":"https:\/\/blutopia.xyz\/torrent\/download\/39797.8d5b7108db36e46442e71580ab0c2f18"}},{"type":"torrent","id":"39796","attributes":{"name":"Trip of Compassion 2017 1080p WEB-DL AAC2.0 x264","release_year":null,"category":"Movie","type":"WEB-DL","resolution":"1080p","seeders":2,"leechers":0,"times_completed":1,"tmdb_id":"587339","imdb_id":"7155154","tvdb_id":"0","mal_id":"0","igdb_id":"0","created_at":"Sat, Dec 28, 2019 4:03 PM","download_link":"https:\/\/blutopia.xyz\/torrent\/download\/39796.8d5b7108db36e46442e71580ab0c2f18"}},{"type":"torrent","id":"39795","attributes":{"name":"Batman Mask of the Phantasm 1993 1080p BluRay FLAC 2.0 x264-TayTO","release_year":null,"category":"Movie","type":"Encode","resolution":"1080p","seeders":6,"leechers":0,"times_completed":5,"tmdb_id":"14919","imdb_id":"0106364","tvdb_id":null,"mal_id":"0","igdb_id":"0","created_at":"Sat, Dec 28, 2019 3:53 PM","download_link":"https:\/\/blutopia.xyz\/torrent\/download\/39795.8d5b7108db36e46442e71580ab0c2f18"}},{"type":"torrent","id":"39794","attributes":{"name":"Tales of the City S04 1080p NF WEB-DL DD+ 5.1 x264-NTG","release_year":null,"category":"TV","type":"WEB-DL","resolution":"1080p","seeders":2,"leechers":0,"times_completed":1,"tmdb_id":"87731","imdb_id":"0106148","tvdb_id":"77422","mal_id":"0","igdb_id":"0","created_at":"Sat, Dec 28, 2019 3:53 PM","download_link":"https:\/\/blutopia.xyz\/torrent\/download\/39794.8d5b7108db36e46442e71580ab0c2f18"}}],"links":{"first":"https:\/\/blutopia.xyz\/api\/torrents?page=1","last":"https:\/\/blutopia.xyz\/api\/torrents?page=2376","prev":null,"next":"https:\/\/blutopia.xyz\/api\/torrents?page=2","self":"https:\/\/blutopia.xyz\/api\/torrents"},"meta":{"current_page":1,"from":1,"last_page":2376,"path":"https:\/\/blutopia.xyz\/api\/torrents","per_page":15,"to":15,"total":35628}}
